…
``` r
# create grids of tuning params
tree_grid <- 
  grid_regular(
    cost_complexity(), 
    tree_depth(), 
    min_n(), 
    levels = 4
    )

tree_grid
```

    ## # A tibble: 64 x 3
    ##    cost_complexity tree_depth min_n
    ##              <dbl>      <int> <int>
    ##  1    0.0000000001          1     2
    ##  2    0.0000001             1     2
    ##  3    0.0001                1     2
    ##  4    0.1                   1     2
    ##  5    0.0000000001          5     2
    ##  6    0.0000001             5     2
    ##  7    0.0001                5     2
    ##  8    0.1                   5     2
    ##  9    0.0000000001         10     2
    ## 10    0.0000001            10     2
    ## # … with 54 more rows
…
